Monkey PAXGene tube RNA-seq data analysis - RNA-seq: downstream analysis
…
enrichment <- 
  enrichr(CAF09_immu1[CAF09_immu1 %in% CAF04_immu1], 
          databases = "GO_Biological_Process_2023") # overlap 304

Uploading data to Enrichr... Done.
  Querying GO_Biological_Process_2023... Done.
Parsing results... Done.

enrichment[[1]] %>% 
  as_tibble() %>% 
  arrange(-Combined.Score)

# A tibble: 2,015 × 9
   Term       Overlap  P.value Adjusted.P.value Old.P.value Old.Adjusted.P.value
   <chr>      <chr>      <dbl>            <dbl>       <int>                <int>
 1 Interleuk… 5/5     7.85e-10         7.91e- 8           0                    0
 2 Regulatio… 4/5     2.59e- 7         1.63e- 5           0                    0
 3 Regulatio… 4/6     7.66e- 7         4.29e- 5           0                    0
 4 Defense R… 41/189  1.53e-35         3.09e-32           0                    0
 5 Defense R… 34/148  1.73e-30         1.74e-27           0                    0
 6 Negative … 18/61   8.25e-19         5.54e-16           0                    0
 7 Positive … 3/5     3.40e- 5         1.02e- 3           0                    0
 8 Regulatio… 3/5     3.40e- 5         1.02e- 3           0                    0
 9 Negative … 15/53   1.41e-15         7.08e-13           0                    0
10 Cytosolic… 8/23    1.05e- 9         1.00e- 7           0                    0
# ℹ 2,005 more rows
# ℹ 3 more variables: Odds.Ratio <dbl>, Combined.Score <dbl>, Genes <chr>

enrichment <- 
  enrichr(CAF09_immu1[!CAF09_immu1 %in% CAF04_immu1], 
          databases = "GO_Biological_Process_2023") # overlap 304

Uploading data to Enrichr... Done.
  Querying GO_Biological_Process_2023... Done.
Parsing results... Done.

enrichment[[1]] %>% 
  as_tibble() %>% 
  arrange(-Combined.Score)

# A tibble: 2,748 × 9
   Term       Overlap  P.value Adjusted.P.value Old.P.value Old.Adjusted.P.value
   <chr>      <chr>      <dbl>            <dbl>       <int>                <int>
 1 Positive … 3/5     1.45e- 4     0.00665                0                    0
 2 Interleuk… 3/6     2.85e- 4     0.0107                 0                    0
 3 Positive … 14/57   7.83e-11     0.0000000717           0                    0
 4 Antigen P… 6/18    3.21e- 6     0.000315               0                    0
 5 Positive … 14/64   4.16e-10     0.000000190            0                    0
 6 Regulatio… 3/7     4.90e- 4     0.0160                 0                    0
 7 Growth Ho… 3/7     4.90e- 4     0.0160                 0                    0
 8 Positive … 8/29    3.61e- 7     0.0000530              0                    0
 9 Macrophag… 9/35    1.29e- 7     0.0000253              0                    0
10 Microglia… 6/20    6.43e- 6     0.000570               0                    0
# ℹ 2,738 more rows
# ℹ 3 more variables: Odds.Ratio <dbl>, Combined.Score <dbl>, Genes <chr>

enrichment <- 
  enrichr(CAF04_immu1[!CAF04_immu1 %in% CAF09_immu1], 
          databases = "GO_Molecular_Function_2023") # overlap 304

Uploading data to Enrichr... Done.
  Querying GO_Molecular_Function_2023... Done.
Parsing results... Done.

enrichment[[1]] %>% 
  as_tibble() %>% 
  arrange(-Combined.Score)

# A tibble: 45 × 9
   Term        Overlap P.value Adjusted.P.value Old.P.value Old.Adjusted.P.value
   <chr>       <chr>     <dbl>            <dbl>       <int>                <int>
 1 Annealing … 1/5     0.00250           0.0326           0                    0
 2 Calcium-In… 1/7     0.00350           0.0326           0                    0
 3 Eukaryotic… 1/9     0.00449           0.0326           0                    0
 4 Myosin II … 1/10    0.00499           0.0326           0                    0
 5 NADPH Bind… 1/13    0.00648           0.0326           0                    0
 6 Phospholip… 1/14    0.00698           0.0326           0                    0
 7 Aldo-Keto … 1/14    0.00698           0.0326           0                    0
 8 Ribosomal … 1/16    0.00797           0.0326           0                    0
 9 Calcium-De… 1/16    0.00797           0.0326           0                    0
10 RNA Stem-L… 1/20    0.00996           0.0346           0                    0
# ℹ 35 more rows
# ℹ 3 more variables: Odds.Ratio <dbl>, Combined.Score <dbl>, Genes <chr>
…
res_vacc <- 
      lfcShrink(dds, 
                coef = "vacc_H107_CAF09c_vs_H107_CAF04_CpG", 
                type = "apeglm", 
                parallel = F)

using 'apeglm' for LFC shrinkage. If used in published research, please cite:
    Zhu, A., Ibrahim, J.G., Love, M.I. (2018) Heavy-tailed prior distributions for
    sequence count data: removing the noise and preserving large differences.
    Bioinformatics. https://doi.org/10.1093/bioinformatics/bty895

res_vacc %>% as_tibble(rownames = "gene_name") %>% 
  filter(padj < 0.05, abs(log2FoldChange) > 1)

# A tibble: 24 × 6
   gene_name baseMean log2FoldChange lfcSE   pvalue        padj
   <chr>        <dbl>          <dbl> <dbl>    <dbl>       <dbl>
 1 SYCP2         65.6           1.29 0.357 1.28e- 5 0.00453    
 2 CD300LD       32.2          -1.20 0.307 4.03e- 6 0.00227    
 3 IDO1        1338.            3.63 0.625 2.60e-10 0.000000945
 4 TRPM2       1780.            1.52 0.366 1.39e- 6 0.00161    
 5 C2            38.3           1.23 0.576 9.13e- 4 0.0495     
 6 NECTIN2      222.            1.14 0.180 1.31e-11 0.000000143
 7 TRIM55       101.            1.21 0.421 1.48e- 4 0.0213     
 8 ADAMTS17      22.4          -1.14 0.280 2.34e- 6 0.00196    
 9 VAMP5        132.            1.87 0.339 1.71e- 9 0.00000466 
10 PAQR7         29.3           1.06 0.476 8.42e- 4 0.0473     
# ℹ 14 more rows
…
